ALU_SV/src/transcript
# vsim -c top 
# Start time: 14:56:38 on Jul 29,2025
# ** Note: (vsim-3813) Design is being optimized due to module recompilation...
# ** Warning: top.sv(28): (vopt-2241) Connection width does not match width of port 'CMD'. The port definition is at: alu.v(1).
# ** Warning: top.sv(28): (vopt-2241) Connection width does not match width of port 'RES'. The port definition is at: alu.v(1).
# //  Questa Sim
# //  Version 10.6c linux Jul 25 2017
# //
# //  Copyright 1991-2017 Mentor Graphics Corporation
# //  All Rights Reserved.
# //
# //  QuestaSim and its associated documentation contain trade
# //  secrets and commercial or financial information that are the property of
# //  Mentor Graphics Corporation and are privileged, confidential,
# //  and exempt from disclosure under the Freedom of Information Act,
# //  5 U.S.C. Section 552. Furthermore, this information
# //  is prohibited from disclosure under the Trade Secrets Act,
# //  18 U.S.C. Section 1905.
# //
# Loading sv_std.std
# Loading work.alu_intf(fast)
# Loading work.alu_pkg(fast)
# Loading work.top(fast)
# ** Warning: (vsim-8441) alu_driver.sv(29): Clocking block output vif.driver_cb.ce is not legal in this
# or another expression.
#    Time: 0 ns  Iteration: 0  Region: /alu_pkg File: alu_pakage.sv
# ** Warning: (vsim-8441) alu_driver.sv(28): Clocking block output vif.driver_cb.cin is not legal in this
# or another expression.
#    Time: 0 ns  Iteration: 0  Region: /alu_pkg File: alu_pakage.sv
# ** Warning: (vsim-8441) alu_driver.sv(30): Clocking block output vif.driver_cb.inp_valid is not legal in this
# or another expression.
#    Time: 0 ns  Iteration: 0  Region: /alu_pkg File: alu_pakage.sv
# ** Warning: (vsim-8441) alu_driver.sv(26): Clocking block output vif.driver_cb.mode is not legal in this
# or another expression.
#    Time: 0 ns  Iteration: 0  Region: /alu_pkg File: alu_pakage.sv
# ** Warning: (vsim-8441) alu_driver.sv(24): Clocking block output vif.driver_cb.opa is not legal in this
# or another expression.
#    Time: 0 ns  Iteration: 0  Region: /alu_pkg File: alu_pakage.sv
# ** Warning: (vsim-8441) alu_driver.sv(25): Clocking block output vif.driver_cb.opb is not legal in this
# or another expression.
#    Time: 0 ns  Iteration: 0  Region: /alu_pkg File: alu_pakage.sv
# 
# ----------------------------------------------------- Randomised values --------------------------------------------------------------------- 
# 
# Time :                    0 | CE = 1 | MODE = 1 | INP_VALID = 11 | CIN = 1 | OPA =  11 | OPB =  20 
# Time :                    0 | CE = 1 | MODE = 1 | INP_VALID = 11 | CIN = 1 | OPA = 104 | OPB = 117 
# Time :                    0 | CE = 1 | MODE = 1 | INP_VALID = 11 | CIN = 0 | OPA = 234 | OPB = 114 
# Time :                    0 | CE = 1 | MODE = 1 | INP_VALID = 11 | CIN = 0 | OPA =  37 | OPB = 105 
# Time :                    0 | CE = 1 | MODE = 1 | INP_VALID = 11 | CIN = 1 | OPA = 100 | OPB = 171 
# Time :                    0 | CE = 1 | MODE = 1 | INP_VALID = 11 | CIN = 1 | OPA = 145 | OPB =  53 
# Time :                    0 | CE = 1 | MODE = 1 | INP_VALID = 11 | CIN = 1 | OPA = 145 | OPB =  67 
# Time :                    0 | CE = 1 | MODE = 1 | INP_VALID = 11 | CIN = 0 | OPA = 134 | OPB =  78 
# Time :                    0 | CE = 1 | MODE = 1 | INP_VALID = 11 | CIN = 1 | OPA = 228 | OPB = 197 
# Time :                    0 | CE = 1 | MODE = 1 | INP_VALID = 11 | CIN = 0 | OPA = 184 | OPB = 202 
# Time :                    0 | CE = 1 | MODE = 1 | INP_VALID = 11 | CIN = 1 | OPA =  64 | OPB =  82 
# Time :                    0 | CE = 1 | MODE = 1 | INP_VALID = 11 | CIN = 1 | OPA =  90 | OPB = 178 
# Time :                    0 | CE = 1 | MODE = 1 | INP_VALID = 11 | CIN = 0 | OPA = 190 | OPB = 112 
# Time :                    0 | CE = 1 | MODE = 1 | INP_VALID = 11 | CIN = 1 | OPA = 166 | OPB = 180 
# Time :                    0 | CE = 1 | MODE = 1 | INP_VALID = 11 | CIN = 0 | OPA =  17 | OPB =  53 
# Time :                    0 | CE = 1 | MODE = 1 | INP_VALID = 11 | CIN = 1 | OPA = 225 | OPB =  12 
# Time :                    0 | CE = 1 | MODE = 1 | INP_VALID = 11 | CIN = 0 | OPA =  25 | OPB = 131 
# Time :                    0 | CE = 1 | MODE = 1 | INP_VALID = 11 | CIN = 1 | OPA = 201 | OPB =  19 
# Time :                    0 | CE = 1 | MODE = 1 | INP_VALID = 11 | CIN = 1 | OPA = 179 | OPB =  60 
# Time :                    0 | CE = 1 | MODE = 1 | INP_VALID = 11 | CIN = 0 | OPA =  96 | OPB = 141 
# 
# ----------------------------------------------------- Randomization done @ : 0 --------------------------------------------------------------------- 
# 
#  
# ------------------------------------ Scoreboard start @ : 0 -------------------------------------------------
# ----------------------------------------------------------- Driver @ : 10 ---------------------------------------------------
# ------------------------------------------------------ Reference @ : 30 -------------------------------------------------
# 50 Driver reset: M:1 |cmd:5 |valid:11 |opa:11 |opb:20
# --------------------------------------------------------- Driver end @ : 50 -----------------------------------------------------------
# Reference : Time : 70 | CMD =  5 | RES =  10 | COUT = x | OFLOW = 0 | G = x | L = x | E = x | OPA =  11 | OPB =  20 
# --------------------------------------------------- Reference end @ : 70 -----------------------------------------------------------
# ------------------------------------------------------ Reference @ : 70 -------------------------------------------------
# Driver : Time :                   90 | ce = 1 | mode = 1 | inp_valid = 11 | cin = 1 | opa = 104 | opb = 117 
# --------------------------------------------------------- Driver end @ : 90 -----------------------------------------------------------
# --------------------------------------------- Monitor @ : 90 ----------------------------------------------------
# Driver : Time :                  130 | ce = 1 | mode = 1 | inp_valid = 11 | cin = 0 | opa = 234 | opb = 114 
# --------------------------------------------------------- Driver end @ : 130 -----------------------------------------------------------
# Monitor : Time : 130 | CMD =  4 |  RES = 104 | COUT = z | OFLOW = z | G = z | L = z | E = z | OPA = 104 | OPB = 117 
# -------------------------------------- Monitor end @ : 130 --------------------------------------------------
# Reference : Time : 130 | CMD =  4 | RES = 105 | COUT = 0 | OFLOW = x | G = x | L = x | E = x | OPA = 104 | OPB = 117 
# --------------------------------------------------- Reference end @ : 130 -----------------------------------------------------------
# ------------------------------------------------------ Reference @ : 130 -------------------------------------------------
# Driver : Time :                  170 | ce = 1 | mode = 1 | inp_valid = 11 | cin = 0 | opa =  37 | opb = 105 
# --------------------------------------------------------- Driver end @ : 170 -----------------------------------------------------------
# Monitor : Time : 170 | CMD =  7 |  RES = 115 | COUT = z | OFLOW = z | G = z | L = z | E = z | OPA = 234 | OPB = 114 
# -------------------------------------- Monitor end @ : 170 --------------------------------------------------
# Reference : Time : 170 | CMD =  7 | RES = 113 | COUT = x | OFLOW = 0 | G = x | L = x | E = x | OPA = 234 | OPB = 114 
# --------------------------------------------------- Reference end @ : 170 -----------------------------------------------------------
# ------------------------------------------------------ Reference @ : 170 -------------------------------------------------
# Driver : Time :                  210 | ce = 1 | mode = 1 | inp_valid = 11 | cin = 1 | opa = 100 | opb = 171 
# --------------------------------------------------------- Driver end @ : 210 -----------------------------------------------------------
# Monitor : Time : 210 | CMD =  7 |  RES = 106 | COUT = z | OFLOW = z | G = z | L = z | E = z | OPA =  37 | OPB = 105 
# -------------------------------------- Monitor end @ : 210 --------------------------------------------------
# Reference : Time : 210 | CMD =  7 | RES = 104 | COUT = x | OFLOW = 0 | G = x | L = x | E = x | OPA =  37 | OPB = 105 
# --------------------------------------------------- Reference end @ : 210 -----------------------------------------------------------
# ------------------------------------------------------ Reference @ : 210 -------------------------------------------------
# Driver : Time :                  250 | ce = 1 | mode = 1 | inp_valid = 11 | cin = 1 | opa = 145 | opb =  53 
# --------------------------------------------------------- Driver end @ : 250 -----------------------------------------------------------
# Monitor : Time : 250 | CMD =  5 |  RES =  99 | COUT = z | OFLOW = z | G = z | L = z | E = z | OPA = 100 | OPB = 171 
# -------------------------------------- Monitor end @ : 250 --------------------------------------------------
# Reference : Time : 250 | CMD =  5 | RES =  99 | COUT = x | OFLOW = 0 | G = x | L = x | E = x | OPA = 100 | OPB = 171 
# --------------------------------------------------- Reference end @ : 250 -----------------------------------------------------------
# ------------------------------------------------------ Reference @ : 250 -------------------------------------------------
# Driver : Time :                  290 | ce = 1 | mode = 1 | inp_valid = 11 | cin = 1 | opa = 145 | opb =  67 
# --------------------------------------------------------- Driver end @ : 290 -----------------------------------------------------------
# Monitor : Time : 290 | CMD =  4 |  RES = 145 | COUT = z | OFLOW = z | G = z | L = z | E = z | OPA = 145 | OPB =  53 
# -------------------------------------- Monitor end @ : 290 --------------------------------------------------
# Reference : Time : 290 | CMD =  4 | RES = 146 | COUT = 0 | OFLOW = x | G = x | L = x | E = x | OPA = 145 | OPB =  53 
# --------------------------------------------------- Reference end @ : 290 -----------------------------------------------------------
# ------------------------------------------------------ Reference @ : 290 -------------------------------------------------
# Driver : Time :                  330 | ce = 1 | mode = 1 | inp_valid = 11 | cin = 0 | opa = 134 | opb =  78 
# --------------------------------------------------------- Driver end @ : 330 -----------------------------------------------------------
# Monitor : Time : 330 | CMD = 10 |  RES =   x | COUT = z | OFLOW = z | G = z | L = z | E = z | OPA = 145 | OPB =  67 
# -------------------------------------- Monitor end @ : 330 --------------------------------------------------
# Reference : Time : 330 | CMD = 10 | RES = 486 | COUT = x | OFLOW = x | G = x | L = x | E = x | OPA = 145 | OPB =  67 
# --------------------------------------------------- Reference end @ : 330 -----------------------------------------------------------
# ------------------------------------------------------ Reference @ : 330 -------------------------------------------------
# Driver : Time :                  370 | ce = 1 | mode = 1 | inp_valid = 11 | cin = 1 | opa = 228 | opb = 197 
# --------------------------------------------------------- Driver end @ : 370 -----------------------------------------------------------
# Monitor : Time : 370 | CMD =  2 |  RES = 212 | COUT = 0 | OFLOW = z | G = z | L = z | E = z | OPA = 134 | OPB =  78 
# -------------------------------------- Monitor end @ : 370 --------------------------------------------------
# Reference : Time : 370 | CMD =  2 | RES = 212 | COUT = 0 | OFLOW = x | G = x | L = x | E = x | OPA = 134 | OPB =  78 
# --------------------------------------------------- Reference end @ : 370 -----------------------------------------------------------
# ------------------------------------------------------ Reference @ : 370 -------------------------------------------------
# Driver : Time :                  410 | ce = 1 | mode = 1 | inp_valid = 11 | cin = 0 | opa = 184 | opb = 202 
# --------------------------------------------------------- Driver end @ : 410 -----------------------------------------------------------
# Monitor : Time : 410 | CMD =  3 |  RES =  30 | COUT = z | OFLOW = 0 | G = z | L = z | E = z | OPA = 228 | OPB = 197 
# -------------------------------------- Monitor end @ : 410 --------------------------------------------------
# Reference : Time : 410 | CMD =  3 | RES =  30 | COUT = x | OFLOW = 0 | G = x | L = x | E = x | OPA = 228 | OPB = 197 
# --------------------------------------------------- Reference end @ : 410 -----------------------------------------------------------
# ------------------------------------------------------ Reference @ : 410 -------------------------------------------------
# Driver : Time :                  450 | ce = 1 | mode = 1 | inp_valid = 11 | cin = 1 | opa =  64 | opb =  82 
# --------------------------------------------------------- Driver end @ : 450 -----------------------------------------------------------
# Monitor : Time : 450 | CMD =  7 |  RES = 203 | COUT = z | OFLOW = z | G = z | L = z | E = z | OPA = 184 | OPB = 202 
# -------------------------------------- Monitor end @ : 450 --------------------------------------------------
# Reference : Time : 450 | CMD =  7 | RES = 201 | COUT = x | OFLOW = 0 | G = x | L = x | E = x | OPA = 184 | OPB = 202 
# --------------------------------------------------- Reference end @ : 450 -----------------------------------------------------------
# ------------------------------------------------------ Reference @ : 450 -------------------------------------------------
# Driver : Time :                  490 | ce = 1 | mode = 1 | inp_valid = 11 | cin = 1 | opa =  90 | opb = 178 
# --------------------------------------------------------- Driver end @ : 490 -----------------------------------------------------------
# Monitor : Time : 490 | CMD =  7 |  RES =  83 | COUT = z | OFLOW = z | G = z | L = z | E = z | OPA =  64 | OPB =  82 
# -------------------------------------- Monitor end @ : 490 --------------------------------------------------
# Reference : Time : 490 | CMD =  7 | RES =  81 | COUT = x | OFLOW = 0 | G = x | L = x | E = x | OPA =  64 | OPB =  82 
# --------------------------------------------------- Reference end @ : 490 -----------------------------------------------------------
# ------------------------------------------------------ Reference @ : 490 -------------------------------------------------
# Driver : Time :                  530 | ce = 1 | mode = 1 | inp_valid = 11 | cin = 0 | opa = 190 | opb = 112 
# --------------------------------------------------------- Driver end @ : 530 -----------------------------------------------------------
# Monitor : Time : 530 | CMD =  3 |  RES = 423 | COUT = z | OFLOW = 1 | G = z | L = z | E = z | OPA =  90 | OPB = 178 
# -------------------------------------- Monitor end @ : 530 --------------------------------------------------
# Reference : Time : 530 | CMD =  3 | RES = 423 | COUT = x | OFLOW = 1 | G = x | L = x | E = x | OPA =  90 | OPB = 178 
# --------------------------------------------------- Reference end @ : 530 -----------------------------------------------------------
# ------------------------------------------------------ Reference @ : 530 -------------------------------------------------
# Driver : Time :                  570 | ce = 1 | mode = 1 | inp_valid = 11 | cin = 1 | opa = 166 | opb = 180 
# --------------------------------------------------------- Driver end @ : 570 -----------------------------------------------------------
# Monitor : Time : 570 | CMD =  1 |  RES =  78 | COUT = z | OFLOW = 0 | G = z | L = z | E = z | OPA = 190 | OPB = 112 
# -------------------------------------- Monitor end @ : 570 --------------------------------------------------
# Reference : Time : 570 | CMD =  1 | RES =  78 | COUT = x | OFLOW = 0 | G = x | L = x | E = x | OPA = 190 | OPB = 112 
# --------------------------------------------------- Reference end @ : 570 -----------------------------------------------------------
# ------------------------------------------------------ Reference @ : 570 -------------------------------------------------
# Driver : Time :                  610 | ce = 1 | mode = 1 | inp_valid = 11 | cin = 0 | opa =  17 | opb =  53 
# --------------------------------------------------------- Driver end @ : 610 -----------------------------------------------------------
# Monitor : Time : 610 | CMD =  1 |  RES = 498 | COUT = z | OFLOW = 1 | G = z | L = z | E = z | OPA = 166 | OPB = 180 
# -------------------------------------- Monitor end @ : 610 --------------------------------------------------
# Reference : Time : 610 | CMD =  1 | RES = 498 | COUT = x | OFLOW = 1 | G = x | L = x | E = x | OPA = 166 | OPB = 180 
# --------------------------------------------------- Reference end @ : 610 -----------------------------------------------------------
# ------------------------------------------------------ Reference @ : 610 -------------------------------------------------
# Driver : Time :                  650 | ce = 1 | mode = 1 | inp_valid = 11 | cin = 1 | opa = 225 | opb =  12 
# --------------------------------------------------------- Driver end @ : 650 -----------------------------------------------------------
# Monitor : Time : 650 | CMD =  1 |  RES = 476 | COUT = z | OFLOW = 1 | G = z | L = z | E = z | OPA =  17 | OPB =  53 
# -------------------------------------- Monitor end @ : 650 --------------------------------------------------
# Reference : Time : 650 | CMD =  1 | RES = 476 | COUT = x | OFLOW = 1 | G = x | L = x | E = x | OPA =  17 | OPB =  53 
# --------------------------------------------------- Reference end @ : 650 -----------------------------------------------------------
# ------------------------------------------------------ Reference @ : 650 -------------------------------------------------
# Driver : Time :                  690 | ce = 1 | mode = 1 | inp_valid = 11 | cin = 0 | opa =  25 | opb = 131 
# --------------------------------------------------------- Driver end @ : 690 -----------------------------------------------------------
# Monitor : Time : 690 | CMD =  4 |  RES = 225 | COUT = z | OFLOW = z | G = z | L = z | E = z | OPA = 225 | OPB =  12 
# -------------------------------------- Monitor end @ : 690 --------------------------------------------------
# Reference : Time : 690 | CMD =  4 | RES = 226 | COUT = 0 | OFLOW = x | G = x | L = x | E = x | OPA = 225 | OPB =  12 
# --------------------------------------------------- Reference end @ : 690 -----------------------------------------------------------
# ------------------------------------------------------ Reference @ : 690 -------------------------------------------------
# Driver : Time :                  730 | ce = 1 | mode = 1 | inp_valid = 11 | cin = 1 | opa = 201 | opb =  19 
# --------------------------------------------------------- Driver end @ : 730 -----------------------------------------------------------
# Monitor : Time : 730 | CMD =  8 |  RES =   z | COUT = z | OFLOW = z | G = z | L = 1 | E = z | OPA =  25 | OPB = 131 
# -------------------------------------- Monitor end @ : 730 --------------------------------------------------
# Reference : Time : 730 | CMD =  8 | RES =   x | COUT = x | OFLOW = x | G = 0 | L = 1 | E = 0 | OPA =  25 | OPB = 131 
# --------------------------------------------------- Reference end @ : 730 -----------------------------------------------------------
# ------------------------------------------------------ Reference @ : 730 -------------------------------------------------
# Driver : Time :                  770 | ce = 1 | mode = 1 | inp_valid = 11 | cin = 1 | opa = 179 | opb =  60 
# --------------------------------------------------------- Driver end @ : 770 -----------------------------------------------------------
# Monitor : Time : 770 | CMD =  9 |  RES = 230 | COUT = z | OFLOW = z | G = z | L = z | E = z | OPA = 201 | OPB =  19 
# -------------------------------------- Monitor end @ : 770 --------------------------------------------------
# Reference : Time : 770 | CMD =  9 | RES = 456 | COUT = x | OFLOW = x | G = x | L = x | E = x | OPA = 201 | OPB =  19 
# --------------------------------------------------- Reference end @ : 770 -----------------------------------------------------------
# ------------------------------------------------------ Reference @ : 770 -------------------------------------------------
# Driver : Time :                  810 | ce = 1 | mode = 1 | inp_valid = 11 | cin = 0 | opa =  96 | opb = 141 
# --------------------------------------------------------- Driver end @ : 810 -----------------------------------------------------------
# Monitor : Time : 810 | CMD =  9 |  RES = 456 | COUT = z | OFLOW = z | G = z | L = z | E = z | OPA = 179 | OPB =  60 
# -------------------------------------- Monitor end @ : 810 --------------------------------------------------
# Reference : Time : 810 | CMD =  9 | RES = 228 | COUT = x | OFLOW = x | G = x | L = x | E = x | OPA = 179 | OPB =  60 
# --------------------------------------------------- Reference end @ : 810 -----------------------------------------------------------
# ------------------------------------------------------ Reference @ : 810 -------------------------------------------------
# Monitor : Time : 850 | CMD =  0 |  RES = 237 | COUT = 0 | OFLOW = z | G = z | L = z | E = z | OPA =  96 | OPB = 141 
# -------------------------------------- Monitor end @ : 850 --------------------------------------------------
# Reference : Time : 850 | CMD =  0 | RES = 237 | COUT = 0 | OFLOW = x | G = x | L = x | E = x | OPA =  96 | OPB = 141 
# --------------------------------------------------- Reference end @ : 850 -----------------------------------------------------------
#  Match =           0 , Mismatch =          20
# 
# 
# 
# 
# 
# 
# 
#  ------------------------------------ Scoreboard done @ : 870 -------------------------------------------------
# Monitor : Time : 890 | CMD =  0 |  RES = 237 | COUT = 0 | OFLOW = z | G = z | L = z | E = z | OPA =  96 | OPB = 141 
# -------------------------------------- Monitor end @ : 890 --------------------------------------------------
# ** Note: $finish    : top.sv(53)
#    Time: 890 ns  Iteration: 3  Instance: /top
# End time: 14:56:44 on Jul 29,2025, Elapsed time: 0:00:06
# Errors: 0, Warnings: 8
